Taille des images : 800 x 450

Origines des images
* 1 => https://pixabay.com/fr/moto-garage-r%C3%A9parations-hobby-407186/
* 2 => https://pixabay.com/fr/l-espace-vide-garage-stone-floor-2519839/
* 3 => batcave dark knight rises
* 4 => https://pixabay.com/fr/souterraines-ruelle-garage-sombre-2618567/
* 5 => https://pixabay.com/fr/couloir-tour-tube-design-modernes-802068/
* 6 => https://pixabay.com/fr/moto-garage-atelier-outils-2619494/
* 7 => https://pixabay.com/fr/l-architecture-b%C3%A2timents-1834403/
* 8 => https://pixabay.com/fr/voiture-bentley-continental-937414/
* 9 => https://pixabay.com/fr/trafic-automatique-v%C3%A9hicule-3062610/
* 10 => https://pixabay.com/fr/adam-opel-ag-opel-le-capitaine-a-3017047/
* 11 => https://pixabay.com/fr/garage-souterraines-magasin-ferm%C3%A9-769792/
* 12 => https://pixabay.com/fr/pont-garage-stationnement-parking-438415/
* 13 => https://fr.wikipedia.org/wiki/Porsche_911
* 14 => https://pixabay.com/fr/fiat-500-oldtimer-cinquecento-2716838/
* 15 => https://pixabay.com/fr/rolls-royce-cabriolet-sport-coup%C3%A9-2735568/
* 16 => https://pixabay.com/fr/bmw-600-ann%C3%A9es-1957-1959-2-cyl-boxer-2920756/
* 17 => https://pixabay.com/fr/renault-r4-classique-oldtimer-2742810/
* 18 => batman 1960
* 19 => https://pixabay.com/fr/ferrari-california-automobile-849305/
* 20 => https://pixabay.com/fr/bus-vw-oldtimer-bulli-vw-2642036/
